[
    {
        "locale": "af",
        "country": "Afrikaans",
        "string": "Beweeg dit om te begin"
    },
    {
        "locale": "ar",
        "country": "Arabic",
        "string": "???? ?????"
    },
    {
        "locale": "az",
        "country": "Azerbaijani",
        "string": "Baslamaq ucun h?r?k?t edin"
    },
    {
        "locale": "be",
        "country": "Belarusian",
        "string": "Перамясціць яго, каб пачаць"
    },
    {
        "locale": "bg",
        "country": "Bulgarian",
        "string": "Преместете го, за да започнете"
    },
    {
        "locale": "bn",
        "country": "Bengali",
        "string": "???? ???? ??? ????"
    },
    {
        "locale": "bs",
        "country": "Bosnian",
        "string": "Premjestite za pocetak"
    },
    {
        "locale": "ca",
        "country": "Catalan",
        "string": "Mou-la per comencar"
    },
    {
        "locale": "ceb",
        "country": "Cebuano",
        "string": "Ibalhin kini aron magsugod"
    },
    {
        "locale": "cs",
        "country": "Czech",
        "string": "Prejdete na zacatek"
    },
    {
        "locale": "cy",
        "country": "Welsh",
        "string": "Symudwch i ddechrau"
    },
    {
        "locale": "da",
        "country": "Danish",
        "string": "Flyt det for at starte"
    },
    {
        "locale": "de",
        "country": "German",
        "string": "Verschiebe es zum Start"
    },
    {
        "locale": "el",
        "country": "Greek",
        "string": "??????????? ?? ??? ?? ??????????"
    },
    {
        "locale": "en",
        "country": "English",
        "string": "Move it to start"
    },
    {
        "locale": "eo",
        "country": "Esperanto",
        "string": "Move it to start"
    },
    {
        "locale": "es",
        "country": "Spanish",
        "string": "Moverlo para empezar"
    },
    {
        "locale": "et",
        "country": "Estonian",
        "string": "Liigutage see alustamiseks"
    },
    {
        "locale": "eu",
        "country": "Basque",
        "string": "Mugitu hasteko"
    },
    {
        "locale": "fa",
        "country": "Persian",
        "string": "???? ?? ?? ???? ????"
    },
    {
        "locale": "fi",
        "country": "Finnish",
        "string": "Siirra se alkuun"
    },
    {
        "locale": "fr",
        "country": "French",
        "string": "Deplacez-le pour commencer"
    },
    {
        "locale": "ga",
        "country": "Irish",
        "string": "Bog e chun tosu"
    },
    {
        "locale": "gl",
        "country": "Galician",
        "string": "Moverlo para comezar"
    },
    {
        "locale": "gu",
        "country": "Gujarati",
        "string": "???? ??? ???? ???? ?????"
    },
    {
        "locale": "ha",
        "country": "Hausa",
        "string": "Matsar da shi don farawa"
    },
    {
        "locale": "hi",
        "country": "Hindi",
        "string": "??? ???? ???? ?? ??? ?? ????"
    },
    {
        "locale": "hmn",
        "country": "Hmong",
        "string": "Move it to start"
    },
    {
        "locale": "hr",
        "country": "Croatian",
        "string": "Premjesti je za pocetak"
    },
    {
        "locale": "ht",
        "country": "Haitian Creole",
        "string": "Deplase li yo komanse"
    },
    {
        "locale": "hu",
        "country": "Hungarian",
        "string": "Mozgassa a kezdeshez"
    },
    {
        "locale": "hy",
        "country": "Armenian",
        "string": "????????? ??? ??????? ?????"
    },
    {
        "locale": "id",
        "country": "Indonesian",
        "string": "Pindahkan untuk memulai"
    },
    {
        "locale": "ig",
        "country": "Igbo",
        "string": "Bughar?a ya ka ?malite"
    },
    {
        "locale": "is",
        "country": "Icelandic",
        "string": "F?r?u ?a? til a? byrja"
    },
    {
        "locale": "it",
        "country": "Italian",
        "string": "Sposta per iniziare"
    },
    {
        "locale": "iw",
        "country": "Hebrew",
        "string": "????? ???? ??? ??????"
    },
    {
        "locale": "ja",
        "country": "Japanese",
        "string": "??????"
    },
    {
        "locale": "jw",
        "country": "Javanese",
        "string": "Pindhah menyang miwiti"
    },
    {
        "locale": "ka",
        "country": "Georgian",
        "string": "???????? ??????"
    },
    {
        "locale": "kk",
        "country": "Kazakh",
        "string": "Бастау ?шін оны жылжыты?ыз"
    },
    {
        "locale": "km",
        "country": "Khmer",
        "string": "?????????????????????????"
    },
    {
        "locale": "kn",
        "country": "Kannada",
        "string": "??????????? ?????? ?????"
    },
    {
        "locale": "ko",
        "country": "Korean",
        "string": "????? ??????."
    },
    {
        "locale": "la",
        "country": "Latin",
        "string": "Move it to start"
    },
    {
        "locale": "lo",
        "country": "Lao",
        "string": "?????????????????????"
    },
    {
        "locale": "lt",
        "country": "Lithuanian",
        "string": "Perkelkite ji i pradzia"
    },
    {
        "locale": "lv",
        "country": "Latvian",
        "string": "Parvietojiet to, lai saktu"
    },
    {
        "locale": "mg",
        "country": "Malagasy",
        "string": "Alefaso mba hanombohana"
    },
    {
        "locale": "mi",
        "country": "Maori",
        "string": "Whakaturia kia timata"
    },
    {
        "locale": "mk",
        "country": "Macedonian",
        "string": "Движете го за да започнете"
    },
    {
        "locale": "ml",
        "country": "Malayalam",
        "string": "?????????? ??? ???????"
    },
    {
        "locale": "mn",
        "country": "Mongolian",
        "string": "Эхлээд ??нийг шилж??лээрэй"
    },
    {
        "locale": "mr",
        "country": "Marathi",
        "string": "??????? ?????????? ?? ????"
    },
    {
        "locale": "ms",
        "country": "Malay",
        "string": "Pindah ke mulanya"
    },
    {
        "locale": "mt",
        "country": "Maltese",
        "string": "Nimxuha biex tibda"
    },
    {
        "locale": "my",
        "country": "Myanmar (Burmese)",
        "string": "start ? Move"
    },
    {
        "locale": "ne",
        "country": "Nepali",
        "string": "????? ???? ???? ??????????"
    },
    {
        "locale": "nl",
        "country": "Dutch",
        "string": "Verplaats het om te beginnen"
    },
    {
        "locale": "no",
        "country": "Norwegian",
        "string": "Flytt den for a starte"
    },
    {
        "locale": "ny",
        "country": "Chichewa",
        "string": "Chotsani icho kuti chiyambe"
    },
    {
        "locale": "pa",
        "country": "Punjabi",
        "string": "????? ????? ??? ?? ??? ???"
    },
    {
        "locale": "pl",
        "country": "Polish",
        "string": "Przesun, aby rozpoczac"
    },
    {
        "locale": "pt",
        "country": "Portuguese",
        "string": "Mova-o para comecar"
    },
    {
        "locale": "ro",
        "country": "Romanian",
        "string": "Muta?i-o pentru a incepe"
    },
    {
        "locale": "ru",
        "country": "Russian",
        "string": "Переместите его, чтобы начать"
    },
    {
        "locale": "si",
        "country": "Sinhala",
        "string": "????? ?????? ?? ???????"
    },
    {
        "locale": "sk",
        "country": "Slovak",
        "string": "Presunte ho na zaciatok"
    },
    {
        "locale": "sl",
        "country": "Slovenian",
        "string": "Premakni se, da zacnete"
    },
    {
        "locale": "so",
        "country": "Somali",
        "string": "U dhaqaaqo si aad u bilowdo"
    },
    {
        "locale": "sq",
        "country": "Albanian",
        "string": "Levizni per te filluar"
    },
    {
        "locale": "sr",
        "country": "Serbian",
        "string": "Помери га да започне"
    },
    {
        "locale": "st",
        "country": "Sesotho",
        "string": "E tlohele ho qala"
    },
    {
        "locale": "su",
        "country": "Sundanese",
        "string": "Mindahkeun eta pikeun ngamimitian"
    },
    {
        "locale": "sv",
        "country": "Swedish",
        "string": "Flytta det for att starta"
    },
    {
        "locale": "sw",
        "country": "Swahili",
        "string": "Hamisha ili kuanza"
    },
    {
        "locale": "ta",
        "country": "Tamil",
        "string": "????????????? ??? ???????????"
    },
    {
        "locale": "te",
        "country": "Telugu",
        "string": "???????????????? ?????? ?????????"
    },
    {
        "locale": "tg",
        "country": "Tajik",
        "string": "Онро сар кунед"
    },
    {
        "locale": "th",
        "country": "Thai",
        "string": "?????????????????"
    },
    {
        "locale": "tl",
        "country": "Filipino",
        "string": "Ilipat ito upang magsimula"
    },
    {
        "locale": "tr",
        "country": "Turkish",
        "string": "Baslamak icin tas?"
    },
    {
        "locale": "uk",
        "country": "Ukrainian",
        "string": "Перемістити його, щоб почати"
    },
    {
        "locale": "ur",
        "country": "Urdu",
        "string": "???? ???? ????? ??? ????? ????"
    },
    {
        "locale": "uz",
        "country": "Uzbek",
        "string": "Boshlash uchun uni ko&#39;chiring"
    },
    {
        "locale": "vi",
        "country": "Vietnamese",
        "string": "Di chuy?n no d? b?t d?u"
    },
    {
        "locale": "yi",
        "country": "Yiddish",
        "string": "???? ?? ?? ????????"
    },
    {
        "locale": "yo",
        "country": "Yoruba",
        "string": "Gbe e lati b?r?"
    },
    {
        "locale": "zh",
        "country": "Chinese",
        "string": "?????"
    },
    {
        "locale": "zh-CN",
        "country": "Chinese (Simplified)",
        "string": "?????"
    },
    {
        "locale": "zh-TW",
        "country": "Chinese (Traditional)",
        "string": "?????"
    },
    {
        "locale": "zu",
        "country": "Zulu",
        "string": "Hambisa ukuze uqale"
    }
]