%YAML 1.1
%TAG !u! tag:unity3d.com,2011:
--- !u!1045 &1
EditorBuildSettings:
  m_ObjectHideFlags: 0
  serializedVersion: 2
  m_Scenes:
  - enabled: 1
    path: Assets/Scenes/MainScene.unity
    guid: 36d68bf14af7911499958bfc5c20762b
  - enabled: 1
    path: Assets/Scenes/CategoryListScene.unity
    guid: 8865ccbe3d454da4eb4f0f55db27d28e
  - enabled: 1
    path: Assets/Scenes/SubcategoryListScene.unity
    guid: f05f13f41fcff274c9fdf03062298762
  - enabled: 1
    path: Assets/Scenes/LevelListScene.unity
    guid: 3dd511e81e840194cb0ddfad8b91f39c
  - enabled: 1
    path: Assets/Scenes/LevelScene.unity
    guid: 2cda990e2423bbf4892e6590ba056729
  m_configObjects: {}
